{
  "__type__": "cc.AnimationClip",
  "_name": "appear",
  "_objFlags": 0,
  "_native": "",
  "_duration": 1.2666666666666666,
  "sample": 60,
  "speed": 1.1,
  "wrapMode": 1,
  "curveData": {
    "paths": {
      "2_01": {
        "comps": {
          "cc.Sprite": {
            "spriteFrame": [
              {
                "frame": 0,
                "value": {
                  "__uuid__": "50d295d2-f489-4a73-bb82-7c62582133cb"
                }
              },
              {
                "frame": 0.08333333333333333,
                "value": {
                  "__uuid__": "b8e2b8cd-ded7-4c91-b9a6-5ef6801198e2"
                }
              },
              {
                "frame": 0.16666666666666666,
                "value": {
                  "__uuid__": "c61dc8bd-7cb1-47bb-b741-72d54d5cc92f"
                }
              },
              {
                "frame": 0.25,
                "value": {
                  "__uuid__": "a2db93d9-55aa-4d3f-91b3-ea2a47b073c0"
                }
              },
              {
                "frame": 0.3333333333333333,
                "value": {
                  "__uuid__": "df1bdf5c-eaaf-45ed-a97d-28abfe79f15b"
                }
              },
              {
                "frame": 0.4166666666666667,
                "value": {
                  "__uuid__": "6c42c22b-eb02-471f-987a-09a05749fca4"
                }
              },
              {
                "frame": 0.5,
                "value": {
                  "__uuid__": "d4896587-a6b3-4187-8ace-9d8bf65b6559"
                }
              },
              {
                "frame": 0.5833333333333334,
                "value": {
                  "__uuid__": "512a1cba-94f1-465f-a353-1113740e60bb"
                }
              },
              {
                "frame": 0.6666666666666666,
                "value": {
                  "__uuid__": "839e3814-1dae-4dfa-a1d9-348d2eef5ada"
                }
              },
              {
                "frame": 0.75,
                "value": {
                  "__uuid__": "d4d5839f-6581-4768-ae6b-6f4a2f7df4b3"
                }
              },
              {
                "frame": 0.8333333333333334,
                "value": {
                  "__uuid__": "0fac7cf3-1057-4eeb-ac37-e1c2dae09890"
                }
              },
              {
                "frame": 0.9166666666666666,
                "value": {
                  "__uuid__": "9ead9a0f-d1a8-4815-be59-c980389770d9"
                }
              },
              {
                "frame": 1,
                "value": {
                  "__uuid__": "d206b0c9-1793-4c5f-8999-26da9ac5636a"
                }
              },
              {
                "frame": 1.0833333333333333,
                "value": {
                  "__uuid__": "fea38402-4019-4ba7-937d-58e7a92b7aeb"
                }
              },
              {
                "frame": 1.1666666666666667,
                "value": {
                  "__uuid__": "ec7720b5-6b57-43ec-af7f-6b8159766ca7"
                }
              },
              {
                "frame": 1.25,
                "value": {
                  "__uuid__": "13de9983-fd41-4348-8d87-b0e54e05c420"
                }
              }
            ]
          }
        }
      }
    }
  },
  "events": []
}