{
  "__type__": "cc.AnimationClip",
  "_name": "pos3",
  "_objFlags": 0,
  "_native": "",
  "_duration": 0.3333333333333333,
  "sample": 60,
  "speed": 0.4,
  "wrapMode": "2",
  "curveData": {
    "props": {
      "scale": [
        {
          "frame": 0,
          "value": {
            "__type__": "cc.Vec2",
            "x": 0.36,
            "y": 0.36
          }
        },
        {
          "frame": 0.16666666666666666,
          "value": {
            "__type__": "cc.Vec2",
            "x": 0.28,
            "y": 0.28
          }
        },
        {
          "frame": 0.3333333333333333,
          "value": {
            "__type__": "cc.Vec2",
            "x": 0.36,
            "y": 0.36
          }
        }
      ]
    }
  },
  "events": []
}