{
  "__type__": "cc.AnimationClip",
  "_name": "chamthan",
  "_objFlags": 0,
  "_native": "",
  "_duration": 0.5,
  "sample": 60,
  "speed": 0.9,
  "wrapMode": "1",
  "curveData": {
    "props": {
      "position": [
        {
          "frame": 0,
          "value": [
            0,
            1000
          ]
        },
        {
          "frame": 0.3333333333333333,
          "value": [
            0,
            -381
          ]
        },
        {
          "frame": 0.5,
          "value": [
            0,
            10
          ]
        }
      ]
    }
  },
  "events": []
}