{
  "__type__": "cc.AnimationClip",
  "_name": "notice2out",
  "_objFlags": 0,
  "_native": "",
  "_duration": 0.16666666666666666,
  "sample": 60,
  "speed": 1,
  "wrapMode": 1,
  "curveData": {
    "props": {
      "position": [
        {
          "frame": 0,
          "value": [
            0,
            283.8
          ]
        },
        {
          "frame": 0.16666666666666666,
          "value": [
            0,
            400
          ]
        }
      ]
    }
  },
  "events": []
}