{
  "__type__": "cc.AnimationClip",
  "_name": "handFadeOut",
  "_objFlags": 0,
  "_native": "",
  "_duration": 0.3333333333333333,
  "sample": 60,
  "speed": 0.4,
  "wrapMode": 1,
  "curveData": {
    "props": {
      "opacity": [
        {
          "frame": 0,
          "value": 255
        },
        {
          "frame": 0.3333333333333333,
          "value": 0
        }
      ]
    }
  },
  "events": []
}