{
  "__type__": "cc.AnimationClip",
  "_name": "lamp6",
  "_objFlags": 0,
  "_native": "",
  "_duration": 0.16666666666666666,
  "sample": 60,
  "speed": 1,
  "wrapMode": 1,
  "curveData": {
    "props": {
      "opacity": [
        {
          "frame": 0,
          "value": 0
        },
        {
          "frame": 0.16666666666666666,
          "value": 255
        }
      ],
      "position": [
        {
          "frame": 0,
          "value": [
            9,
            200
          ]
        },
        {
          "frame": 0.16666666666666666,
          "value": [
            9,
            146
          ]
        }
      ]
    }
  },
  "events": []
}